5 Procesamiento | Informe-descriptivo
…
Figure 5.11: Comparación de precio y cantidad por categoría.

La estrategia consiste en imputar los valores faltantes de la variable Precio utilizando la mediana calculada para cada combinación de Categoría y Cantidad. De este modo, se aprovecha la información específica de cada grupo, ya que la mediana es un estadístico robusto frente a outliers y sesgos, por tanto refleja de manera adecuada la tendencia central en cada segmento.

A continuación para cada grupo definido por Categoría y Cantidad, se reemplaza el valor faltante en Precio por la mediana de Precio dentro del grupo. Esta metodología permite obtener imputaciones consistentes con la distribución de precios en cada segmento y un posible dato faltante MAR o MNAR.

## # A tibble: 40 × 5
## # Groups:   category [8]
##    category quantity mediana n_missing total
##    <chr>       <dbl>   <dbl>     <int> <int>
##  1 books           1    1515         0   984
##  2 books           2     303         0  1008
##  3 books           3    4545         0  1000
##  4 books           4     606         0   959
##  5 books           5      NA      1029  1029
##  6 clothing        1   30008         0  6841
##  7 clothing        2   60016         0  6951
##  8 clothing        3   90024         0  6905
##  9 clothing        4  120032         0  6849
## 10 clothing        5   15004         0  6940
## # ℹ 30 more rows
…
